^C:\Users\gbkl9302\source\repos\EE2XKiller\EE2XKiller\EE2XKiller.vcxproj
C:\Users\gbkl9302\source\repos\EE2XKiller\x64\Release\EE2XKiller.lib
C:\Users\gbkl9302\source\repos\EE2XKiller\x64\Release\EE2XKiller.exp
